D:\workspace_bpjs_v2\library\bpjs\bpjs-library\src\main\java\com\bpjs\SingletonEngine.java
D:\workspace_bpjs_v2\library\bpjs\bpjs-library\src\main\java\com\bpjs\SecurityUtil.java
D:\workspace_bpjs_v2\library\bpjs\bpjs-library\src\main\java\com\bpjs\FingerPrintUtil.java
D:\workspace_bpjs_v2\library\bpjs\bpjs-library\src\main\java\com\berry\BCrypt.java
